Control Variables for the Villages of Afghanistan
…
As we’ve mentioned, the weather data is georeferenced, so we need to ensure the same for the village data.

It is very important to check if the village and the raster data share the same coordinate reference system!

Usually, the WGS 84 CRS is the default coordinate references system for coordinates. In this case it matches the weather coordinate references system.

We also need to ensure that we can later associate the correct weather data with the right village, we do this by creating a merging variable called ID. This is handled by the prepare_coord() function, which requires the coordinates’ variable names as input.

village_coord <- prepare_coord(village,
                               lon_var = lon,
                               lat_var = lat)
village_coord

# A tibble: 135 × 7
      ID Province District Village           Treatment/Control ass…¹   lat   lon
   <int> <chr>    <chr>    <chr>             <chr>                   <dbl> <dbl>
 1     1 Badghis  Qadis    Jawaleq Olia      Control                  34.7  63.4
 2     2 Badghis  Qadis    Roobat            Control                  34.7  63.4
 3     3 Badghis  Qadis    Bouiha            Treatment                34.7  63.5
 4     4 Badghis  Qadis    Boya Zard Alo Gak Control                  34.7  63.5
 5     5 Badghis  Qadis    Shish Mani        Control                  34.7  63.4
 6     6 Badghis  Qadis    Qadis Khordak     Treatment                34.7  63.5
 7     7 Badghis  Jawand   Chahak            Control                  34.7  63.9
 8     8 Badghis  Qadis    Gorghiha          Control                  34.8  63.3
 9     9 Badghis  Qadis    Dahak Osta        Control                  34.8  63.3
10    10 Badghis  Qadis    Dahak Sofla       Control                  34.8  63.3
# ℹ 125 more rows
# ℹ abbreviated name: ¹​`Treatment/Control assignment`
…
sp_control_village <- purrr::map(sp_control,
                                 extract_by_coord,
                                 coord = village_geo) |> 
    purrr::reduce(dplyr::full_join, by = "ID") |> 
    dplyr::select(-dplyr::matches("x_cell|y_cell")) |> 
    dplyr::rename_with(.cols = dplyr::starts_with("VNL_npp"),
                       .fn = ~"night_light") |> 
    dplyr::rename_with(.cols = dplyr::starts_with("AFG_ppp_2020"),
                       .fn = ~"pop") |> 
    dplyr::mutate(night_light_ln = log(1 + night_light),
                  .after = night_light)

sp_control_village

# A tibble: 135 × 9
      ID slope   TRI roughness elevation  URCA night_light night_light_ln   pop
   <int> <dbl> <dbl>     <dbl>     <dbl> <int>       <dbl>          <dbl> <dbl>
 1     1  4.10 313.       855.     2001.    20           0              0  44.4
 2     2  3.83 301.       928.     1769.    20           0              0  33.9
 3     3  2.35 205.       767.     1800.    20           0              0  46.8
 4     4  1.77 133.       400.     1648.    20           0              0  51.7
 5     5  1.94 193.       601.     1487.    20           0              0  38.0
 6     6  1.55  97.7      419.     1760.    20           0              0  46.4
 7     7  3.59 256.       869.     2107.    28           0              0  23.9
 8     8  2.91 211.       637.     1638.    13           0              0  45.6
 9     9  2.91 211.       637.     1638.    13           0              0  45.6
10    10  2.91 211.       637.     1638.    13           0              0  45.6
# ℹ 125 more rows
…
